{
    "status": "success",
    "message": "Successfully get the data",
    "data": {
        "meta": {
            "total": 974,
            "perpage": 2,
            "pages": 487,
            "page": 1
        },
        "columns": [
            {
                "column_name": "Host"
            },
            {
                "column_name": "Severity"
            },
            {
                "column_name": "Created At"
            },
            {
                "column_name": "Rule Name"
            },
            {
                "column_name": "Alerted Entry"
            },
            {
                "column_name": "Status"
            }
        ],
        "data": [
            {
                "Host": {
                    "name": "asm-Vostro-260",
                    "id": 1
                },
                "Severity": "INFO",
                "Createdat": "2019-12-03 10:45:49.972058",
                "Rule_Name": {
                    "name": "Test rule",
                    "id": 1
                },
                "Alerted Entry": {
                    "cwd": "\"/run/containerd/io.containerd.runtime.v1.linux/moby/87024d2ad30f62a83c01cdb6c3a5de4726078307c17df032a2de2e4e40e58ccd\"",
                    "eid": "0000000945",
                    "gid": "0",
                    "pid": "10382",
                    "uid": "0",
                    "auid": "4294967295",
                    "egid": "0",
                    "euid": "0",
                    "path": "/usr/sbin/runc",
                    "time": "1575363274",
                    "ctime": "1554868710",
                    "parent": "10306",
                    "cmdline": "runc --root /var/run/docker/runtime-runc/moby --log /run/containerd/io.containerd.runtime.v1.linux/moby/87024d2ad30f62a83c01cdb6c3a5de4726078307c17df032a2de2e4e40e58ccd/log.json --log-format json state 87024d2ad30f62a83c01cdb6c3a5de4726078307c17df032a2de2e4e40e58ccd"
                },
                "Status": "OPEN"
            },
            {
                "Host": {
                    "name": "asm-Vostro-260",
                    "id": 1
                },
                "Severity": "INFO",
                "Createdat": "2019-12-03 10:45:49.922325",
                "Rule_Name": {
                    "name": "Test rule",
                    "id": 1
                },
                "Alerted Entry": {
                    "cwd": "\"/\"",
                    "eid": "0000000066",
                    "gid": "0",
                    "pid": "8376",
                    "uid": "0",
                    "auid": "4294967295",
                    "egid": "0",
                    "euid": "0",
                    "path": "/sbin/xtables-multi",
                    "time": "1575362718",
                    "ctime": "1532325621",
                    "parent": "8345",
                    "cmdline": "/sbin/iptables --wait -t nat -I POSTROUTING -d 127.0.0.11 -j DOCKER_POSTROUTING"
                },
                "Status": "OPEN"
            }
        ]
    }
}
